…
::: {#cb18 .sourceCode .cell-code}
``` {.sourceCode .r .code-with-copy}
#Combined table
salmon<-salmon %>%
  filter(Country!="EU27") %>%
  mutate(Estimate="mowi industry report") %>%
  rbind(salmon_ref_countries,salmon_residual_countries)

salmon
```
:::

::: {.cell-output .cell-output-stdout}
    # A tibble: 27 × 3
       Country    Tons Estimate                        
       <chr>     <dbl> <chr>                           
     1 France  269000  mowi industry report            
     2 Germany 237000  mowi industry report            
     3 Italy   139000  mowi industry report            
     4 Spain   130000  mowi industry report            
     5 Sweden   58000  mowi industry report            
     6 Belgium  33079. ref country per capita - germany
     7 Denmark  32592. ref country per capita - sweden 
     8 Ireland  14407. ref country per capita - germany
     9 Greece   24630. ref country per capita - italy  
    10 Cyprus    2130. ref country per capita - italy  
    # ℹ 17 more rows
…
