…
# Rename collumns
names(lifeexp) <- c("species","weight_lower","weight_upper","lifespan_lower","lifespan_upper")

lifeexp
```
:::

::: {.cell-output .cell-output-stdout}
    # A tibble: 24 × 5
       species               weight_lower weight_upper lifespan_lower lifespan_upper
       <chr>                        <dbl>        <dbl>          <dbl>          <dbl>
     1 grass carp(=white am…          500         2500             12             24
     2 silver carp                    300         1500             24             24
     3 common carp                    500         2500             10             48
     4 nile tilapia                   250          800              6              7
     5 bighead carp                   500         1500             14             28
     6 carassius spp                  150          400             12             19
     7 catla                          300         2000             14             21
     8 atlantic salmon               3614         8434             22             27
     9 roho labeo                     300         1500             14             21
    10 pangas catfishes nei           500         1500             10             14
    # ℹ 14 more rows
…
